{
	"success": true,
	"data": {
		"list": [{
			"no": "1",
			"summary": "Summary of row 001",
			"subject": "Subject 001",
			"debit": 36.97,
			"credit": 43.79
		}, {
			"no": "2",
			"summary": "Summary of row 002",
			"subject": "Subject 002",
			"debit": 68.84,
			"credit": 14.4
		}, {
			"no": "3",
			"summary": "Summary of row 003",
			"subject": "Subject 003",
			"debit": 9.76,
			"credit": 35.49
		}, {
			"no": "4",
			"summary": "Summary of row 004",
			"subject": "Subject 004",
			"debit": 10.21,
			"credit": 89.03
		}, {
			"no": "5",
			"summary": "Summary of row 005",
			"subject": "Subject 005",
			"debit": 49.67,
			"credit": 43.81
		}, {
			"no": "6",
			"summary": "Summary of row 006",
			"subject": "Subject 006",
			"debit": 83.3,
			"credit": 61.57
		}],
		"pageNo": 1,
		"pageSize": 50,
		"pageCount": 4,
		"total": 156
	}
}